<?xml version="1.0" encoding="UTF-8"?>
<svg width="61px" height="60px" viewBox="0 0 61 60" version="1.1" xmlns="http://www.w3.org/2000/svg" xmlns:xlink="http://www.w3.org/1999/xlink">
    <!-- Generator: Sketch 39.1 (31720) - http://www.bohemiancoding.com/sketch -->
    <title>Google +_Color</title>
    <desc>Created with Sketch.</desc>
    <defs></defs>
    <g id="Orenic.me---one-page" stroke="none" stroke-width="1" fill="none" fill-rule="evenodd">
        <g id="Desktop-HD" transform="translate(-1363.000000, -620.000000)">
            <g id="Header" transform="translate(-85.000000, 0.000000)">
                <g id="Social-icons-hover" transform="translate(1448.688568, 354.000000)">
                    <g id="Google-+" transform="translate(0.000000, 266.000000)">
                        <path d="M0,30 C0,13.4314567 13.5038921,0 30.1617889,0 C46.8196858,0 60.3235779,13.4314567 60.3235779,30 C60.3235779,46.5685433 46.8196858,60 30.1617889,60 C13.5038921,60 0,46.5685433 0,30 Z" id="back" fill="#DC4E41"></path>
                        <path d="M24.6422172,29.1428571 L24.6422172,32.4 L30.0771951,32.4 C29.8581531,33.7978571 28.4343806,36.4985714 24.6422172,36.4985714 C21.3702783,36.4985714 18.7007048,33.8114286 18.7007048,30.5 C18.7007048,27.1885714 21.3702783,24.5014286 24.6422172,24.5014286 C26.5040736,24.5014286 27.7498746,25.2885714 28.4617608,25.9671429 L31.0628838,23.4835714 C29.392689,21.9364286 27.22965,21 24.6422172,21 C19.3441405,21 15.0591327,25.2478571 15.0591327,30.5 C15.0591327,35.7521429 19.3441405,40 24.6422172,40 C30.1730259,40 33.8419783,36.1457143 33.8419783,30.7171429 C33.8419783,30.0928571 33.7735277,29.6178571 33.6913869,29.1428571 L24.6422172,29.1428571 L24.6422172,29.1428571 Z" id="Shape" fill="#FFFFFF"></path>
                        <polyline id="Shape-Copy" fill="#FFFFFF" points="45.1773982 29.1428571 42.439374 29.1428571 42.439374 26.4285714 39.7013499 26.4285714 39.7013499 29.1428571 36.9633258 29.1428571 36.9633258 31.8571429 39.7013499 31.8571429 39.7013499 34.5714286 42.439374 34.5714286 42.439374 31.8571429 45.1773982 31.8571429"></polyline>
                    </g>
                </g>
            </g>
        </g>
    </g>
</svg>