<?xml version="1.0" encoding="UTF-8"?>
<svg width="61px" height="60px" viewBox="0 0 61 60" version="1.1" xmlns="http://www.w3.org/2000/svg" xmlns:xlink="http://www.w3.org/1999/xlink">
    <!-- Generator: Sketch 39.1 (31720) - http://www.bohemiancoding.com/sketch -->
    <title>LinkedIN_Color</title>
    <desc>Created with Sketch.</desc>
    <defs></defs>
    <g id="Orenic.me---one-page" stroke="none" stroke-width="1" fill="none" fill-rule="evenodd">
        <g id="Desktop-HD" transform="translate(-1364.000000, -354.000000)">
            <g id="Header" transform="translate(-85.000000, 0.000000)">
                <g id="Social-icons-hover" transform="translate(1448.688568, 354.000000)">
                    <g id="LinkedIN" transform="translate(1.003942, 0.000000)">
                        <path d="M0,30 C0,13.4314567 13.4844059,0 30.1182654,0 C46.752125,0 60.2365309,13.4314567 60.2365309,30 C60.2365309,46.5685433 46.752125,60 30.1182654,60 C13.4844059,60 0,46.5685433 0,30 Z" id="back" fill="#0077B5"></path>
                        <path d="M21.2842544,24.8473104 L14.4587968,24.8473104 L14.4587968,45.2744497 L21.2842544,45.2744497 L21.2842544,24.8473104 Z M21.7337962,18.5283721 C21.6894963,16.5255041 20.2515894,15 17.9166433,15 C15.5816973,15 14.0551905,16.5255041 14.0551905,18.5283721 C14.0551905,20.4897539 15.5365795,22.0591846 17.8280435,22.0591846 L17.8716619,22.0591846 C20.2515894,22.0591846 21.7337962,20.4897539 21.7337962,18.5283721 Z M45.8994655,33.5621523 C45.8994655,27.2878186 42.5322634,24.3676416 38.0407977,24.3676416 C34.4169287,24.3676416 32.7944616,26.3503088 31.8885625,27.7411856 L31.8885625,24.8478527 L25.062287,24.8478527 C25.1522499,26.7646298 25.062287,45.274992 25.062287,45.274992 L31.8885625,45.274992 L31.8885625,33.8667921 C31.8885625,33.2562922 31.9328624,32.6472837 32.1133334,32.2101858 C32.6066299,30.9905418 33.729803,29.7277845 35.6154798,29.7277845 C38.0863244,29.7277845 39.0740079,31.6009061 39.0740079,34.3459186 L39.0740079,45.2744497 L45.8991929,45.2744497 L45.8994655,33.5621523 Z" id="Shape" fill="#FFFFFF"></path>
                    </g>
                </g>
            </g>
        </g>
    </g>
</svg>